{
  "openapi": "3.1.0",
  "info": {
    "title": "TRACT Fullstack Interview",
    "version": "0.1.0"
  },
  "paths": {
    "/api/v1/farms/": {
      "get": {
        "tags": [
          "farms"
        ],
        "summary": "Read Farms",
        "operationId": "read_farms",
        "parameters": [
          {
            "name": "skip",
            "in": "query",
            "required": false,
            "schema": {
              "type": "integer",
              "default": 0,
              "title": "Skip"
            }
          },
          {
            "name": "limit",
            "in": "query",
            "required": false,
            "schema": {
              "type": "integer",
              "default": 100,
              "title": "Limit"
            }
          }
        ],
        "responses": {
          "200": {
            "description": "Successful Response",
            "content": {
              "application/json": {
                "schema": {
                  "$ref": "#/components/schemas/FarmsView"
                }
              }
            }
          },
          "422": {
            "description": "Validation Error",
            "content": {
              "application/json": {
                "schema": {
                  "$ref": "#/components/schemas/HTTPValidationError"
                }
              }
            }
          }
        }
      }
    },
    "/api/v1/farms/{id}": {
      "get": {
        "tags": [
          "farms"
        ],
        "summary": "Read Farm",
        "operationId": "read_farm",
        "parameters": [
          {
            "name": "id",
            "in": "path",
            "required": true,
            "schema": {
              "type": "integer",
              "title": "Id"
            }
          }
        ],
        "responses": {
          "200": {
            "description": "Successful Response",
            "content": {
              "application/json": {
                "schema": {
                  "$ref": "#/components/schemas/FarmView"
                }
              }
            }
          },
          "422": {
            "description": "Validation Error",
            "content": {
              "application/json": {
                "schema": {
                  "$ref": "#/components/schemas/HTTPValidationError"
                }
              }
            }
          }
        }
      }
    },
    "/api/v1/orders/": {
      "get": {
        "tags": [
          "orders"
        ],
        "summary": "Read Orders",
        "operationId": "read_orders",
        "parameters": [
          {
            "name": "skip",
            "in": "query",
            "required": false,
            "schema": {
              "type": "integer",
              "default": 0,
              "title": "Skip"
            }
          },
          {
            "name": "limit",
            "in": "query",
            "required": false,
            "schema": {
              "type": "integer",
              "default": 100,
              "title": "Limit"
            }
          },
          {
            "name": "farm_id",
            "in": "query",
            "required": false,
            "schema": {
              "title": "Farm Id"
            }
          },
          {
            "name": "product_id",
            "in": "query",
            "required": false,
            "schema": {
              "title": "Product Id"
            }
          }
        ],
        "responses": {
          "200": {
            "description": "Successful Response",
            "content": {
              "application/json": {
                "schema": {
                  "$ref": "#/components/schemas/OrdersView"
                }
              }
            }
          },
          "422": {
            "description": "Validation Error",
            "content": {
              "application/json": {
                "schema": {
                  "$ref": "#/components/schemas/HTTPValidationError"
                }
              }
            }
          }
        }
      },
      "post": {
        "tags": [
          "orders"
        ],
        "summary": "Create Order",
        "operationId": "create_order",
        "requestBody": {
          "required": true,
          "content": {
            "application/json": {
              "schema": {
                "$ref": "#/components/schemas/OrderCreate"
              }
            }
          }
        },
        "responses": {
          "200": {
            "description": "Successful Response",
            "content": {
              "application/json": {
                "schema": {
                  "$ref": "#/components/schemas/OrderView"
                }
              }
            }
          },
          "422": {
            "description": "Validation Error",
            "content": {
              "application/json": {
                "schema": {
                  "$ref": "#/components/schemas/HTTPValidationError"
                }
              }
            }
          }
        }
      }
    },
    "/api/v1/orders/{id}": {
      "get": {
        "tags": [
          "orders"
        ],
        "summary": "Read Order",
        "operationId": "read_order",
        "parameters": [
          {
            "name": "id",
            "in": "path",
            "required": true,
            "schema": {
              "type": "integer",
              "title": "Id"
            }
          }
        ],
        "responses": {
          "200": {
            "description": "Successful Response",
            "content": {
              "application/json": {
                "schema": {
                  "$ref": "#/components/schemas/OrderView"
                }
              }
            }
          },
          "422": {
            "description": "Validation Error",
            "content": {
              "application/json": {
                "schema": {
                  "$ref": "#/components/schemas/HTTPValidationError"
                }
              }
            }
          }
        }
      }
    },
    "/api/v1/products/": {
      "get": {
        "tags": [
          "products"
        ],
        "summary": "Read Products",
        "operationId": "read_products",
        "parameters": [
          {
            "name": "skip",
            "in": "query",
            "required": false,
            "schema": {
              "type": "integer",
              "default": 0,
              "title": "Skip"
            }
          },
          {
            "name": "limit",
            "in": "query",
            "required": false,
            "schema": {
              "type": "integer",
              "default": 100,
              "title": "Limit"
            }
          }
        ],
        "responses": {
          "200": {
            "description": "Successful Response",
            "content": {
              "application/json": {
                "schema": {
                  "$ref": "#/components/schemas/ProductsView"
                }
              }
            }
          },
          "422": {
            "description": "Validation Error",
            "content": {
              "application/json": {
                "schema": {
                  "$ref": "#/components/schemas/HTTPValidationError"
                }
              }
            }
          }
        }
      }
    },
    "/api/v1/products/{id}": {
      "get": {
        "tags": [
          "products"
        ],
        "summary": "Read Product",
        "operationId": "read_product",
        "parameters": [
          {
            "name": "id",
            "in": "path",
            "required": true,
            "schema": {
              "type": "integer",
              "title": "Id"
            }
          }
        ],
        "responses": {
          "200": {
            "description": "Successful Response",
            "content": {
              "application/json": {
                "schema": {
                  "$ref": "#/components/schemas/ProductView"
                }
              }
            }
          },
          "422": {
            "description": "Validation Error",
            "content": {
              "application/json": {
                "schema": {
                  "$ref": "#/components/schemas/HTTPValidationError"
                }
              }
            }
          }
        }
      }
    }
  },
  "components": {
    "schemas": {
      "FarmView": {
        "properties": {
          "city": {
            "type": "string",
            "title": "City"
          },
          "country": {
            "type": "string",
            "title": "Country"
          },
          "name": {
            "type": "string",
            "title": "Name"
          },
          "id": {
            "type": "integer",
            "title": "Id"
          }
        },
        "type": "object",
        "required": [
          "city",
          "country",
          "name",
          "id"
        ],
        "title": "FarmView"
      },
      "FarmsView": {
        "properties": {
          "data": {
            "items": {
              "$ref": "#/components/schemas/FarmView"
            },
            "type": "array",
            "title": "Data"
          },
          "count": {
            "type": "integer",
            "title": "Count"
          }
        },
        "type": "object",
        "required": [
          "data",
          "count"
        ],
        "title": "FarmsView"
      },
      "HTTPValidationError": {
        "properties": {
          "detail": {
            "items": {
              "$ref": "#/components/schemas/ValidationError"
            },
            "type": "array",
            "title": "Detail"
          }
        },
        "type": "object",
        "title": "HTTPValidationError"
      },
      "OrderCreate": {
        "properties": {
          "quantity": {
            "type": "integer",
            "title": "Quantity",
            "default": 1
          },
          "status": {
            "anyOf": [
              {
                "type": "string"
              },
              {
                "type": "null"
              }
            ],
            "title": "Status"
          },
          "farm_id": {
            "anyOf": [
              {
                "type": "integer"
              },
              {
                "type": "null"
              }
            ],
            "title": "Farm Id"
          },
          "product_id": {
            "anyOf": [
              {
                "type": "integer"
              },
              {
                "type": "null"
              }
            ],
            "title": "Product Id"
          },
          "date": {
            "type": "string",
            "format": "date-time",
            "title": "Date"
          }
        },
        "type": "object",
        "required": [
          "farm_id",
          "date"
        ],
        "title": "OrderCreate"
      },
      "OrderView": {
        "properties": {
          "quantity": {
            "type": "integer",
            "title": "Quantity"
          },
          "status": {
            "anyOf": [
              {
                "type": "string"
              },
              {
                "type": "null"
              }
            ],
            "title": "Status"
          },
          "farm_id": {
            "anyOf": [
              {
                "type": "integer"
              },
              {
                "type": "null"
              }
            ],
            "title": "Farm Id"
          },
          "product_id": {
            "anyOf": [
              {
                "type": "integer"
              },
              {
                "type": "null"
              }
            ],
            "title": "Product Id"
          },
          "date": {
            "type": "string",
            "format": "date-time",
            "title": "Date"
          },
          "id": {
            "type": "integer",
            "title": "Id"
          }
        },
        "type": "object",
        "required": [
          "quantity",
          "farm_id",
          "date",
          "id"
        ],
        "title": "OrderView"
      },
      "OrdersView": {
        "properties": {
          "data": {
            "items": {
              "$ref": "#/components/schemas/OrderView"
            },
            "type": "array",
            "title": "Data"
          },
          "count": {
            "type": "integer",
            "title": "Count"
          }
        },
        "type": "object",
        "required": [
          "data",
          "count"
        ],
        "title": "OrdersView"
      },
      "ProductView": {
        "properties": {
          "name": {
            "type": "string",
            "title": "Name"
          },
          "unit_cost": {
            "type": "integer",
            "title": "Unit Cost"
          },
          "unit_revenue": {
            "type": "integer",
            "title": "Unit Revenue"
          },
          "id": {
            "type": "integer",
            "title": "Id"
          }
        },
        "type": "object",
        "required": [
          "name",
          "unit_cost",
          "unit_revenue",
          "id"
        ],
        "title": "ProductView"
      },
      "ProductsView": {
        "properties": {
          "data": {
            "items": {
              "$ref": "#/components/schemas/ProductView"
            },
            "type": "array",
            "title": "Data"
          },
          "count": {
            "type": "integer",
            "title": "Count"
          }
        },
        "type": "object",
        "required": [
          "data",
          "count"
        ],
        "title": "ProductsView"
      },
      "ValidationError": {
        "properties": {
          "loc": {
            "items": {
              "anyOf": [
                {
                  "type": "string"
                },
                {
                  "type": "integer"
                }
              ]
            },
            "type": "array",
            "title": "Location"
          },
          "msg": {
            "type": "string",
            "title": "Message"
          },
          "type": {
            "type": "string",
            "title": "Error Type"
          }
        },
        "type": "object",
        "required": [
          "loc",
          "msg",
          "type"
        ],
        "title": "ValidationError"
      }
    }
  }
}